"Time","Date        -   ","Credit Card Number","Card Holder ID","Customer Name","Merchant Name","Total Charges to Card"
"07:22:03","2018-12-07","4761049645711555811",1,"Robert Johnson","bar","$1,894.00"
"08:26:08","2018-03-05","5570600642865857",16,"Crystal Clark","bar","$1,617.00"
"07:18:09","2018-03-06","4319653513507",25,"Nancy Contreras","bar","$1,334.00"
"08:07:03","2018-01-22","5570600642865857",16,"Crystal Clark","restaurant","$1,131.00"
"08:48:40","2018-09-26","4761049645711555811",1,"Robert Johnson","restaurant","$1,060.00"
"08:28:55","2018-09-06","4761049645711555811",1,"Robert Johnson","bar","$1,017.00"
"07:41:59","2018-03-26","30181963913340",9,"Laurie Gibbs","coffee shop","$1,009.00"
"08:51:41","2018-12-14","501879657465",12,"Megan Price","pub","$748.00"
"07:17:21","2018-04-01","4319653513507",25,"Nancy Contreras","coffee shop","$100.00"
"07:15:18","2018-08-26","4506405265172173",20,"Kevin Spencer","food truck","$23.13"
"07:17:14","2018-08-28","4165305432349489280",10,"Matthew Gutierrez","coffee shop","$20.71"
"08:16:54","2018-10-07","4586962917519654607",20,"Kevin Spencer","food truck","$20.44"
"07:16:04","2018-10-18","5500708021555307",16,"Crystal Clark","pub","$19.86"
"08:42:02","2018-03-03","4681896441519",24,"Stephanie Dalton","food truck","$19.50"
"08:30:28","2018-06-04","584226564303",4,"Danielle Green","food truck","$19.49"
"08:08:27","2018-03-26","5500708021555307",16,"Crystal Clark","pub","$19.34"
"08:56:59","2018-06-01","180098539019105",11,"Brandon Pineda","restaurant","$19.33"
"07:39:47","2018-12-23","4962915017023706562",10,"Matthew Gutierrez","pub","$19.27"
"07:30:56","2018-09-23","4723783028106084756",15,"Kyle Tucker","restaurant","$19.02"
"08:21:10","2018-02-21","4268491956169254",5,"Sara Cooper","food truck","$18.98"
"07:44:24","2018-08-02","5361779664174555",19,"Peter Mckay","food truck","$18.93"
"08:51:29","2018-07-04","213193946980303",10,"Matthew Gutierrez","coffee shop","$18.93"
"07:29:28","2018-06-09","4188164051171486",23,"Mark Lewis","pub","$18.82"
"07:45:48","2018-06-02","4150721559116778",23,"Mark Lewis","food truck","$18.76"
"08:42:50","2018-01-06","3535651398328201",20,"Kevin Spencer","restaurant","$18.72"
"07:28:48","2018-06-24","5175947111814778",14,"Gary Jacobs","pub","$18.60"
"07:12:06","2018-06-23","4834483169177062",8,"Michael Floyd","restaurant","$18.56"
"08:38:49","2018-08-14","4498002758300",18,"Malik Carlson","restaurant","$18.54"
"07:08:08","2018-10-07","3582198969197591",24,"Stephanie Dalton","food truck","$18.53"
"08:27:00","2018-02-27","675911140852",2,"Shane Shaffer","restaurant","$18.52"
"07:33:19","2018-09-12","4834483169177062",8,"Michael Floyd","coffee shop","$18.48"
"07:00:32","2018-01-06","3561954487988605",13,"John Martin","restaurant","$18.35"
"08:54:19","2018-02-18","344119623920892",18,"Malik Carlson","food truck","$18.30"
"07:55:21","2018-02-25","3535651398328201",20,"Kevin Spencer","coffee shop","$18.14"
"08:37:24","2018-02-05","180098539019105",11,"Brandon Pineda","restaurant","$17.85"
"07:36:42","2018-09-02","4150721559116778",23,"Mark Lewis","pub","$17.80"
"08:32:38","2018-04-15","501879657465",12,"Megan Price","bar","$17.78"
"07:08:11","2018-04-09","4150721559116778",23,"Mark Lewis","food truck","$17.73"
"08:46:29","2018-06-13","4279104135293225293",21,"Dana Washington","restaurant","$17.56"
"08:18:50","2018-01-18","4165305432349489280",10,"Matthew Gutierrez","coffee shop","$17.54"
"08:58:13","2018-01-18","180098539019105",11,"Brandon Pineda","food truck","$17.53"
"08:36:46","2018-05-20","4159836738768855913",6,"Beth Hernandez","restaurant","$17.48"
"07:44:39","2018-06-02","3535651398328201",20,"Kevin Spencer","bar","$17.47"
"08:02:04","2018-01-16","30078299053512",3,"Elizabeth Sawyer","coffee shop","$17.36"
"07:02:38","2018-12-28","4711773125020499",13,"John Martin","pub","$17.13"
"07:31:57","2018-06-08","4268491956169254",5,"Sara Cooper","bar","$17.03"
"07:18:34","2018-10-29","503842928916",16,"Crystal Clark","coffee shop","$16.85"
"07:02:33","2018-10-28","4276466390111",5,"Sara Cooper","food truck","$16.85"
"08:18:49","2018-04-23","4834483169177062",8,"Michael Floyd","food truck","$16.65"
"07:20:28","2018-05-03","584226564303",4,"Danielle Green","bar","$16.64"
"07:34:15","2018-03-05","4319653513507",25,"Nancy Contreras","bar","$16.58"
"07:25:42","2018-02-18","3582198969197591",24,"Stephanie Dalton","food truck","$16.38"
"07:36:02","2018-03-28","4165305432349489280",10,"Matthew Gutierrez","coffee shop","$16.36"
"08:41:53","2018-12-16","3581345943543942",6,"Beth Hernandez","food truck","$16.35"
"08:49:34","2018-01-06","4268491956169254",5,"Sara Cooper","pub","$16.28"
"08:10:36","2018-07-17","4586962917519654607",20,"Kevin Spencer","food truck","$16.21"
"07:55:27","2018-06-10","4498002758300",18,"Malik Carlson","restaurant","$16.16"
"08:26:52","2018-04-11","5135837688671496",13,"John Martin","food truck","$16.07"
"08:35:35","2018-09-06","3535651398328201",20,"Kevin Spencer","bar","$15.98"
"07:16:54","2018-06-19","372414832802279",25,"Nancy Contreras","restaurant","$15.98"
"07:57:39","2018-05-28","675911140852",2,"Shane Shaffer","coffee shop","$15.96"
"08:00:22","2018-06-26","503842928916",16,"Crystal Clark","bar","$15.94"
"07:08:04","2018-10-30","4188164051171486",23,"Mark Lewis","restaurant","$15.94"
"07:05:42","2018-05-20","30142966699187",24,"Stephanie Dalton","food truck","$15.37"
"07:33:54","2018-01-14","4741042733274",23,"Mark Lewis","pub","$15.21"
"08:36:58","2018-01-27","6500236164848279",15,"Kyle Tucker","restaurant","$15.15"
"08:23:37","2018-02-25","4834483169177062",8,"Michael Floyd","food truck","$15.10"
"08:20:40","2018-06-10","5135837688671496",13,"John Martin","coffee shop","$15.05"
"08:27:59","2018-04-20","30142966699187",24,"Stephanie Dalton","bar","$15.04"
"07:52:23","2018-09-26","4743204091443101526",19,"Peter Mckay","food truck","$14.94"
"07:42:50","2018-12-11","3517111172421930",1,"Robert Johnson","restaurant","$14.92"
"07:18:20","2018-04-07","5297187379298983",12,"Megan Price","food truck","$14.80"
"07:13:49","2018-08-02","3516952396080247",7,"Sean Taylor","coffee shop","$14.42"
"08:34:15","2018-12-15","372414832802279",25,"Nancy Contreras","food truck","$14.36"
"07:41:49","2018-04-24","6500236164848279",15,"Kyle Tucker","food truck","$14.30"
"07:41:56","2018-10-22","4711773125020499",13,"John Martin","coffee shop","$13.83"
"07:27:55","2018-09-03","376027549341849",12,"Megan Price","pub","$13.59"
"08:52:09","2018-03-10","675911140852",2,"Shane Shaffer","coffee shop","$13.53"
"08:08:38","2018-04-27","3561072557118696",19,"Peter Mckay","food truck","$13.52"
"07:31:20","2018-02-26","4586962917519654607",20,"Kevin Spencer","pub","$13.46"
"07:40:00","2018-05-01","6500236164848279",15,"Kyle Tucker","bar","$12.98"
"08:04:44","2018-10-27","4150721559116778",23,"Mark Lewis","coffee shop","$12.98"
"08:12:28","2018-03-30","4268491956169254",5,"Sara Cooper","coffee shop","$12.96"
"07:31:03","2018-01-17","4498002758300",18,"Malik Carlson","food truck","$12.67"
"08:36:23","2018-08-08","180098539019105",11,"Brandon Pineda","coffee shop","$12.52"
"08:49:16","2018-07-30","4276466390111",5,"Sara Cooper","food truck","$12.50"
"08:52:20","2018-11-30","4539990688484983",7,"Sean Taylor","coffee shop","$12.32"
"08:11:55","2018-12-29","4498002758300",18,"Malik Carlson","restaurant","$12.25"
"08:50:36","2018-02-19","4761049645711555811",1,"Robert Johnson","food truck","$12.17"
"08:35:34","2018-01-20","501879657465",12,"Megan Price","bar","$11.96"
"07:44:59","2018-07-31","4681896441519",24,"Stephanie Dalton","bar","$11.93"
"07:56:09","2018-01-17","4681896441519",24,"Stephanie Dalton","restaurant","$11.91"
"07:25:30","2018-06-08","372414832802279",25,"Nancy Contreras","coffee shop","$11.88"
"08:22:17","2018-12-31","4188164051171486",23,"Mark Lewis","restaurant","$11.87"
"08:46:49","2018-08-30","584226564303",4,"Danielle Green","bar","$11.86"
"07:06:20","2018-04-08","3561954487988605",13,"John Martin","food truck","$11.73"
"08:33:49","2018-09-15","5500708021555307",16,"Crystal Clark","coffee shop","$11.72"
"07:45:28","2018-12-18","4279104135293225293",21,"Dana Washington","food truck","$11.70"
"07:37:03","2018-02-25","5135837688671496",13,"John Martin","pub","$11.68"
"08:21:59","2018-05-04","4027907156459098",11,"Brandon Pineda","pub","$11.65"
